%YAML 1.1
%TAG !u! tag:unity3d.com,2011:
--- !u!74 &7400000
AnimationClip:
  m_ObjectHideFlags: 0
  m_CorrespondingSourceObject: {fileID: 0}
  m_PrefabInstance: {fileID: 0}
  m_PrefabAsset: {fileID: 0}
  m_Name: Anm_Spout_Refill_Out
  serializedVersion: 6
  m_Legacy: 0
  m_Compressed: 0
  m_UseHighQualityCurve: 1
  m_RotationCurves: []
  m_CompressedRotationCurves: []
  m_EulerCurves: []
  m_PositionCurves: []
  m_ScaleCurves: []
  m_FloatCurves: []
  m_PPtrCurves:
  - curve:
    - time: 0
      value: {fileID: 3706068534098086859, guid: 5ec98ccbaab0c1d4e8052b1e82a0d39d, type: 3}
    - time: 0.083333336
      value: {fileID: -6643619732981373924, guid: 5ec98ccbaab0c1d4e8052b1e82a0d39d, type: 3}
    - time: 0.16666667
      value: {fileID: 6478878287425278383, guid: 5ec98ccbaab0c1d4e8052b1e82a0d39d, type: 3}
    - time: 0.25
      value: {fileID: 6709350773040276309, guid: 5ec98ccbaab0c1d4e8052b1e82a0d39d, type: 3}
    - time: 0.33333334
      value: {fileID: -1293193968408915536, guid: 5ec98ccbaab0c1d4e8052b1e82a0d39d, type: 3}
    - time: 0.41666666
      value: {fileID: 423331104104776925, guid: 5ec98ccbaab0c1d4e8052b1e82a0d39d, type: 3}
    - time: 0.5
      value: {fileID: 6034722106983741122, guid: 5ec98ccbaab0c1d4e8052b1e82a0d39d, type: 3}
    - time: 0.8333333
      value: {fileID: -7508939927219733797, guid: 5ec98ccbaab0c1d4e8052b1e82a0d39d, type: 3}
    - time: 0.9166667
      value: {fileID: -5072262383899924235, guid: 5ec98ccbaab0c1d4e8052b1e82a0d39d, type: 3}
    - time: 1
      value: {fileID: -8748431839994965136, guid: 5ec98ccbaab0c1d4e8052b1e82a0d39d, type: 3}
    - time: 1.0833334
      value: {fileID: 2577427212137254250, guid: 5ec98ccbaab0c1d4e8052b1e82a0d39d, type: 3}
    - time: 1.1666666
      value: {fileID: 3130722911627873778, guid: 5ec98ccbaab0c1d4e8052b1e82a0d39d, type: 3}
    - time: 1.25
      value: {fileID: -7097820749888036473, guid: 5ec98ccbaab0c1d4e8052b1e82a0d39d, type: 3}
    - time: 1.3333334
      value: {fileID: -4839691955400964269, guid: 5ec98ccbaab0c1d4e8052b1e82a0d39d, type: 3}
    - time: 1.4166666
      value: {fileID: 5901326097474888359, guid: fece2d2b99e1db1458230ee62d1633db, type: 3}
    - time: 1.5
      value: {fileID: 5901326097474888359, guid: fece2d2b99e1db1458230ee62d1633db, type: 3}
    attribute: m_Sprite
    path: Base
    classID: 212
    script: {fileID: 0}
  m_SampleRate: 60
  m_WrapMode: 0
  m_Bounds:
    m_Center: {x: 0, y: 0, z: 0}
    m_Extent: {x: 0, y: 0, z: 0}
  m_ClipBindingConstant:
    genericBindings:
    - serializedVersion: 2
      path: 1619415391
      attribute: 0
      script: {fileID: 0}
      typeID: 212
      customType: 23
      isPPtrCurve: 1
    pptrCurveMapping:
    - {fileID: 3706068534098086859, guid: 5ec98ccbaab0c1d4e8052b1e82a0d39d, type: 3}
    - {fileID: -6643619732981373924, guid: 5ec98ccbaab0c1d4e8052b1e82a0d39d, type: 3}
    - {fileID: 6478878287425278383, guid: 5ec98ccbaab0c1d4e8052b1e82a0d39d, type: 3}
    - {fileID: 6709350773040276309, guid: 5ec98ccbaab0c1d4e8052b1e82a0d39d, type: 3}
    - {fileID: -1293193968408915536, guid: 5ec98ccbaab0c1d4e8052b1e82a0d39d, type: 3}
    - {fileID: 423331104104776925, guid: 5ec98ccbaab0c1d4e8052b1e82a0d39d, type: 3}
    - {fileID: 6034722106983741122, guid: 5ec98ccbaab0c1d4e8052b1e82a0d39d, type: 3}
    - {fileID: -7508939927219733797, guid: 5ec98ccbaab0c1d4e8052b1e82a0d39d, type: 3}
    - {fileID: -5072262383899924235, guid: 5ec98ccbaab0c1d4e8052b1e82a0d39d, type: 3}
    - {fileID: -8748431839994965136, guid: 5ec98ccbaab0c1d4e8052b1e82a0d39d, type: 3}
    - {fileID: 2577427212137254250, guid: 5ec98ccbaab0c1d4e8052b1e82a0d39d, type: 3}
    - {fileID: 3130722911627873778, guid: 5ec98ccbaab0c1d4e8052b1e82a0d39d, type: 3}
    - {fileID: -7097820749888036473, guid: 5ec98ccbaab0c1d4e8052b1e82a0d39d, type: 3}
    - {fileID: -4839691955400964269, guid: 5ec98ccbaab0c1d4e8052b1e82a0d39d, type: 3}
    - {fileID: 5901326097474888359, guid: fece2d2b99e1db1458230ee62d1633db, type: 3}
    - {fileID: 5901326097474888359, guid: fece2d2b99e1db1458230ee62d1633db, type: 3}
  m_AnimationClipSettings:
    serializedVersion: 2
    m_AdditiveReferencePoseClip: {fileID: 0}
    m_AdditiveReferencePoseTime: 0
    m_StartTime: 0
    m_StopTime: 1.5166667
    m_OrientationOffsetY: 0
    m_Level: 0
    m_CycleOffset: 0
    m_HasAdditiveReferencePose: 0
    m_LoopTime: 1
    m_LoopBlend: 0
    m_LoopBlendOrientation: 0
    m_LoopBlendPositionY: 0
    m_LoopBlendPositionXZ: 0
    m_KeepOriginalOrientation: 0
    m_KeepOriginalPositionY: 1
    m_KeepOriginalPositionXZ: 0
    m_HeightFromFeet: 0
    m_Mirror: 0
  m_EditorCurves: []
  m_EulerEditorCurves: []
  m_HasGenericRootTransform: 0
  m_HasMotionFloatCurves: 0
  m_Events:
  - time: 1.5
    functionName: AnimationFinishedEvent
    data: 
    objectReferenceParameter: {fileID: 0}
    floatParameter: 0
    intParameter: 2
    messageOptions: 0
