%YAML 1.1
%TAG !u! tag:unity3d.com,2011:
--- !u!74 &7400000
AnimationClip:
  m_ObjectHideFlags: 0
  m_CorrespondingSourceObject: {fileID: 0}
  m_PrefabInstance: {fileID: 0}
  m_PrefabAsset: {fileID: 0}
  m_Name: Anm_Spout_Pour_NE
  serializedVersion: 6
  m_Legacy: 0
  m_Compressed: 0
  m_UseHighQualityCurve: 1
  m_RotationCurves: []
  m_CompressedRotationCurves: []
  m_EulerCurves: []
  m_PositionCurves: []
  m_ScaleCurves: []
  m_FloatCurves: []
  m_PPtrCurves:
  - curve:
    - time: 0
      value: {fileID: 8101537630763210193, guid: fece2d2b99e1db1458230ee62d1633db, type: 3}
    - time: 0.083333336
      value: {fileID: -4911262042457927358, guid: 09e1e512779bfcc469daf19618f9c9bf, type: 3}
    - time: 0.16666667
      value: {fileID: -6496562045556073897, guid: 09e1e512779bfcc469daf19618f9c9bf, type: 3}
    - time: 0.25
      value: {fileID: 3779354090657663035, guid: 09e1e512779bfcc469daf19618f9c9bf, type: 3}
    - time: 0.33333334
      value: {fileID: 4273434670166996627, guid: 09e1e512779bfcc469daf19618f9c9bf, type: 3}
    - time: 0.41666666
      value: {fileID: 8992885051395196924, guid: 09e1e512779bfcc469daf19618f9c9bf, type: 3}
    - time: 0.5
      value: {fileID: 6386297107195830849, guid: 09e1e512779bfcc469daf19618f9c9bf, type: 3}
    - time: 0.5833333
      value: {fileID: 8867046049828307541, guid: 09e1e512779bfcc469daf19618f9c9bf, type: 3}
    - time: 0.6666667
      value: {fileID: 8992885051395196924, guid: 09e1e512779bfcc469daf19618f9c9bf, type: 3}
    - time: 0.75
      value: {fileID: 6386297107195830849, guid: 09e1e512779bfcc469daf19618f9c9bf, type: 3}
    - time: 0.8333333
      value: {fileID: 8867046049828307541, guid: 09e1e512779bfcc469daf19618f9c9bf, type: 3}
    - time: 0.9166667
      value: {fileID: 8992885051395196924, guid: 09e1e512779bfcc469daf19618f9c9bf, type: 3}
    - time: 1
      value: {fileID: 6386297107195830849, guid: 09e1e512779bfcc469daf19618f9c9bf, type: 3}
    - time: 1.0833334
      value: {fileID: 8867046049828307541, guid: 09e1e512779bfcc469daf19618f9c9bf, type: 3}
    - time: 1.1666666
      value: {fileID: 4273434670166996627, guid: 09e1e512779bfcc469daf19618f9c9bf, type: 3}
    - time: 1.25
      value: {fileID: 3779354090657663035, guid: 09e1e512779bfcc469daf19618f9c9bf, type: 3}
    - time: 1.3333334
      value: {fileID: -6496562045556073897, guid: 09e1e512779bfcc469daf19618f9c9bf, type: 3}
    - time: 1.4166666
      value: {fileID: -4911262042457927358, guid: 09e1e512779bfcc469daf19618f9c9bf, type: 3}
    - time: 1.5
      value: {fileID: 8101537630763210193, guid: fece2d2b99e1db1458230ee62d1633db, type: 3}
    attribute: m_Sprite
    path: Base
    classID: 212
    script: {fileID: 0}
  m_SampleRate: 60
  m_WrapMode: 0
  m_Bounds:
    m_Center: {x: 0, y: 0, z: 0}
    m_Extent: {x: 0, y: 0, z: 0}
  m_ClipBindingConstant:
    genericBindings:
    - serializedVersion: 2
      path: 1619415391
      attribute: 0
      script: {fileID: 0}
      typeID: 212
      customType: 23
      isPPtrCurve: 1
    pptrCurveMapping:
    - {fileID: 8101537630763210193, guid: fece2d2b99e1db1458230ee62d1633db, type: 3}
    - {fileID: -4911262042457927358, guid: 09e1e512779bfcc469daf19618f9c9bf, type: 3}
    - {fileID: -6496562045556073897, guid: 09e1e512779bfcc469daf19618f9c9bf, type: 3}
    - {fileID: 3779354090657663035, guid: 09e1e512779bfcc469daf19618f9c9bf, type: 3}
    - {fileID: 4273434670166996627, guid: 09e1e512779bfcc469daf19618f9c9bf, type: 3}
    - {fileID: 8992885051395196924, guid: 09e1e512779bfcc469daf19618f9c9bf, type: 3}
    - {fileID: 6386297107195830849, guid: 09e1e512779bfcc469daf19618f9c9bf, type: 3}
    - {fileID: 8867046049828307541, guid: 09e1e512779bfcc469daf19618f9c9bf, type: 3}
    - {fileID: 8992885051395196924, guid: 09e1e512779bfcc469daf19618f9c9bf, type: 3}
    - {fileID: 6386297107195830849, guid: 09e1e512779bfcc469daf19618f9c9bf, type: 3}
    - {fileID: 8867046049828307541, guid: 09e1e512779bfcc469daf19618f9c9bf, type: 3}
    - {fileID: 8992885051395196924, guid: 09e1e512779bfcc469daf19618f9c9bf, type: 3}
    - {fileID: 6386297107195830849, guid: 09e1e512779bfcc469daf19618f9c9bf, type: 3}
    - {fileID: 8867046049828307541, guid: 09e1e512779bfcc469daf19618f9c9bf, type: 3}
    - {fileID: 4273434670166996627, guid: 09e1e512779bfcc469daf19618f9c9bf, type: 3}
    - {fileID: 3779354090657663035, guid: 09e1e512779bfcc469daf19618f9c9bf, type: 3}
    - {fileID: -6496562045556073897, guid: 09e1e512779bfcc469daf19618f9c9bf, type: 3}
    - {fileID: -4911262042457927358, guid: 09e1e512779bfcc469daf19618f9c9bf, type: 3}
    - {fileID: 8101537630763210193, guid: fece2d2b99e1db1458230ee62d1633db, type: 3}
  m_AnimationClipSettings:
    serializedVersion: 2
    m_AdditiveReferencePoseClip: {fileID: 0}
    m_AdditiveReferencePoseTime: 0
    m_StartTime: 0
    m_StopTime: 1.5166667
    m_OrientationOffsetY: 0
    m_Level: 0
    m_CycleOffset: 0
    m_HasAdditiveReferencePose: 0
    m_LoopTime: 1
    m_LoopBlend: 0
    m_LoopBlendOrientation: 0
    m_LoopBlendPositionY: 0
    m_LoopBlendPositionXZ: 0
    m_KeepOriginalOrientation: 0
    m_KeepOriginalPositionY: 1
    m_KeepOriginalPositionXZ: 0
    m_HeightFromFeet: 0
    m_Mirror: 0
  m_EditorCurves: []
  m_EulerEditorCurves: []
  m_HasGenericRootTransform: 0
  m_HasMotionFloatCurves: 0
  m_Events:
  - time: 1.5
    functionName: AnimationFinishedEvent
    data: 
    objectReferenceParameter: {fileID: 0}
    floatParameter: 0
    intParameter: 3
    messageOptions: 0
